[
  {
    "name": "default",
    "type": "mssql",
    "host": "localhost",
    "port": 1433,
    "username": "sa",
    "password": "1234",
    "database": "",
    "synchronize": false,
    "entities": ["entities/*.js"]
  }
]
